{
  "project_info": {
    "project_number": "637783309942",
    "firebase_url": "https://fir-75b41.firebaseio.com",
    "project_id": "fir-75b41",
    "storage_bucket": "fir-75b41.appspot.com"
  },
  "client": [
    {
      "client_info": {
        "mobilesdk_app_id": "1:637783309942:android:b445bc80b30a8ca56d2957",
        "android_client_info": {
          "package_name": "com.example.configcontrolapp"
        }
      },
      "oauth_client": [
        {
          "client_id": "637783309942-ji1c4mup8rd440rhf32v3t8pkr836a9v.apps.googleusercontent.com",
          "client_type": 1,
          "android_info": {
            "package_name": "com.example.configcontrolapp",
            "certificate_hash": "4e5ca9fa7c80d675c4d0e1552b03f5d51eb530c5"
          }
        },
        {
          "client_id": "637783309942-11gnnd39tu6t1oncm8c7gvpq3tsb447l.apps.googleusercontent.com",
          "client_type": 3
        }
      ],
      "api_key": [
        {
          "current_key": "AIzaSyA5AdgmS6q8jCAbKLYEKkAfsdWtX6HWwQQ"
        }
      ],
      "services": {
        "appinvite_service": {
          "other_platform_oauth_client": [
            {
              "client_id": "637783309942-11gnnd39tu6t1oncm8c7gvpq3tsb447l.apps.googleusercontent.com",
              "client_type": 3
            }
          ]
        }
      }
    },
    {
      "client_info": {
        "mobilesdk_app_id": "1:637783309942:android:4ba0e092fdd5e5b46d2957",
        "android_client_info": {
          "package_name": "com.example.configcontrolapp_level"
        }
      },
      "oauth_client": [
        {
          "client_id": "637783309942-40ajh0jnn3q314lhr4987psh8g0la6c3.apps.googleusercontent.com",
          "client_type": 1,
          "android_info": {
            "package_name": "com.example.configcontrolapp_level",
            "certificate_hash": "4e5ca9fa7c80d675c4d0e1552b03f5d51eb530c5"
          }
        },
        {
          "client_id": "637783309942-11gnnd39tu6t1oncm8c7gvpq3tsb447l.apps.googleusercontent.com",
          "client_type": 3
        }
      ],
      "api_key": [
        {
          "current_key": "AIzaSyA5AdgmS6q8jCAbKLYEKkAfsdWtX6HWwQQ"
        }
      ],
      "services": {
        "appinvite_service": {
          "other_platform_oauth_client": [
            {
              "client_id": "637783309942-11gnnd39tu6t1oncm8c7gvpq3tsb447l.apps.googleusercontent.com",
              "client_type": 3
            }
          ]
        }
      }
    },
    {
      "client_info": {
        "mobilesdk_app_id": "1:637783309942:android:7241475533baa3316d2957",
        "android_client_info": {
          "package_name": "com.example.configcontrolapplevel"
        }
      },
      "oauth_client": [
        {
          "client_id": "637783309942-plgr96n6o414rvo9q23gv9e8vjkk54oh.apps.googleusercontent.com",
          "client_type": 1,
          "android_info": {
            "package_name": "com.example.configcontrolapplevel",
            "certificate_hash": "4e5ca9fa7c80d675c4d0e1552b03f5d51eb530c5"
          }
        },
        {
          "client_id": "637783309942-11gnnd39tu6t1oncm8c7gvpq3tsb447l.apps.googleusercontent.com",
          "client_type": 3
        }
      ],
      "api_key": [
        {
          "current_key": "AIzaSyA5AdgmS6q8jCAbKLYEKkAfsdWtX6HWwQQ"
        }
      ],
      "services": {
        "appinvite_service": {
          "other_platform_oauth_client": [
            {
              "client_id": "637783309942-11gnnd39tu6t1oncm8c7gvpq3tsb447l.apps.googleusercontent.com",
              "client_type": 3
            }
          ]
        }
      }
    },
    {
      "client_info": {
        "mobilesdk_app_id": "1:637783309942:android:2889d4d8c9335bd0",
        "android_client_info": {
          "package_name": "com.example.demo"
        }
      },
      "oauth_client": [
        {
          "client_id": "637783309942-sk8vuf1sfj3j95fs6lqkrqnlvmlakbqv.apps.googleusercontent.com",
          "client_type": 1,
          "android_info": {
            "package_name": "com.example.demo",
            "certificate_hash": "4e5ca9fa7c80d675c4d0e1552b03f5d51eb530c5"
          }
        },
        {
          "client_id": "637783309942-11gnnd39tu6t1oncm8c7gvpq3tsb447l.apps.googleusercontent.com",
          "client_type": 3
        }
      ],
      "api_key": [
        {
          "current_key": "AIzaSyA5AdgmS6q8jCAbKLYEKkAfsdWtX6HWwQQ"
        }
      ],
      "services": {
        "appinvite_service": {
          "other_platform_oauth_client": [
            {
              "client_id": "637783309942-11gnnd39tu6t1oncm8c7gvpq3tsb447l.apps.googleusercontent.com",
              "client_type": 3
            }
          ]
        }
      }
    }
  ],
  "configuration_version": "1"
}